module github.com/fajarmzky/base-project

go 1.17

require github.com/go-playground/validator v9.31.0+incompatible

require (
	github.com/Knetic/govaluate v3.0.1-0.20171022003610-9aa49832a739+incompatible // indirect
	github.com/cespare/xxhash/v2 v2.1.2 // indirect
	github.com/cpuguy83/go-md2man/v2 v2.0.0-20190314233015-f79a8a8ca69d // indirect
	github.com/davecgh/go-spew v1.1.1 // indirect
	github.com/dgrijalva/jwt-go v3.2.0+incompatible // indirect
	github.com/dgryski/go-rendezvous v0.0.0-20200823014737-9f7001d12a5f // indirect
	github.com/glebarez/go-sqlite v1.19.1 // indirect
	github.com/glebarez/sqlite v1.5.0 // indirect
	github.com/go-sql-driver/mysql v1.6.0 // indirect
	github.com/golang-jwt/jwt v3.2.2+incompatible // indirect
	github.com/golang-sql/civil v0.0.0-20220223132316-b832511892a9 // indirect
	github.com/golang-sql/sqlexp v0.1.0 // indirect
	github.com/golang/protobuf v1.4.2 // indirect
	github.com/golang/snappy v0.0.1 // indirect
	github.com/google/uuid v1.3.0 // indirect
	github.com/jackc/chunkreader/v2 v2.0.1 // indirect
	github.com/jackc/pgconn v1.13.0 // indirect
	github.com/jackc/pgio v1.0.0 // indirect
	github.com/jackc/pgpassfile v1.0.0 // indirect
	github.com/jackc/pgproto3/v2 v2.3.1 // indirect
	github.com/jackc/pgservicefile v0.0.0-20200714003250-2b9c44734f2b // indirect
	github.com/jackc/pgtype v1.12.0 // indirect
	github.com/jackc/pgx/v4 v4.17.2 // indirect
	github.com/jinzhu/inflection v1.0.0 // indirect
	github.com/jinzhu/now v1.1.5 // indirect
	github.com/klauspost/compress v1.13.6 // indirect
	github.com/mattn/go-colorable v0.1.13 // indirect
	github.com/mattn/go-isatty v0.0.17 // indirect
	github.com/microsoft/go-mssqldb v0.17.0 // indirect
	github.com/montanaflynn/stats v0.6.6 // indirect
	github.com/pkg/errors v0.9.1 // indirect
	github.com/pmezard/go-difflib v1.0.0 // indirect
	github.com/remyoudompheng/bigfft v0.0.0-20200410134404-eec4a21b6bb0 // indirect
	github.com/robfig/cron/v3 v3.0.1 // indirect
	github.com/rs/xid v1.4.0 // indirect
	github.com/russross/blackfriday/v2 v2.0.1 // indirect
	github.com/shurcooL/sanitized_anchor_name v1.0.0 // indirect
	github.com/spf13/cast v1.3.1 // indirect
	github.com/valyala/bytebufferpool v1.0.0 // indirect
	github.com/valyala/fasttemplate v1.2.2 // indirect
	github.com/xdg-go/pbkdf2 v1.0.0 // indirect
	github.com/xdg-go/scram v1.1.1 // indirect
	github.com/xdg-go/stringprep v1.0.3 // indirect
	github.com/youmark/pkcs8 v0.0.0-20181117223130-1be2e3e5546d // indirect
	golang.org/x/crypto v0.6.0 // indirect
	golang.org/x/net v0.7.0 // indirect
	golang.org/x/sync v0.0.0-20210220032951-036812b2e83c // indirect
	golang.org/x/sys v0.5.0 // indirect
	golang.org/x/text v0.7.0 // indirect
	golang.org/x/time v0.3.0 // indirect
	google.golang.org/protobuf v1.25.0 // indirect
	gopkg.in/go-playground/assert.v1 v1.2.1 // indirect
	gopkg.in/yaml.v3 v3.0.1 // indirect
	gorm.io/driver/mysql v1.4.1 // indirect
	gorm.io/driver/postgres v1.4.4 // indirect
	gorm.io/driver/sqlserver v1.4.1 // indirect
	gorm.io/plugin/dbresolver v1.3.0 // indirect
	modernc.org/libc v1.19.0 // indirect
	modernc.org/mathutil v1.5.0 // indirect
	modernc.org/memory v1.4.0 // indirect
	modernc.org/sqlite v1.19.1 // indirect
)

require (
	github.com/caarlos0/env/v6 v6.9.3
	github.com/casbin/casbin v1.9.1
	github.com/casbin/casbin/v2 v2.66.0
	github.com/casbin/gorm-adapter/v3 v3.15.0
	github.com/casbin/json-adapter/v2 v2.1.1
	github.com/casbin/mongodb-adapter/v3 v3.4.1
	github.com/go-playground/locales v0.14.0 // indirect
	github.com/go-playground/universal-translator v0.18.0 // indirect
	github.com/go-playground/validator/v10 v10.11.0
	github.com/go-redis/redis/v8 v8.11.5
	github.com/go-resty/resty/v2 v2.7.0
	github.com/gorilla/schema v1.2.0
	github.com/hibiken/asynq v0.24.0
	github.com/joho/godotenv v1.4.0
	github.com/labstack/echo v3.3.10+incompatible
	github.com/labstack/echo/v4 v4.10.2
	github.com/labstack/gommon v0.4.0
	github.com/leodido/go-urn v1.2.1 // indirect
	github.com/lib/pq v1.10.7
	github.com/opentracing/opentracing-go v1.2.0
	github.com/stretchr/testify v1.8.2
	github.com/urfave/cli v1.22.9
	go.mongodb.org/mongo-driver v1.11.3
	gopkg.in/yaml.v2 v2.4.0
	gorm.io/gorm v1.24.6
)
